<?xml version="1.0" encoding="utf-8"?>
<!-- Generator: Adobe Illustrator 19.2.1, SVG Export Plug-In . SVG Version: 6.00 Build 0)  -->
<svg version="1.1" id="logo_ACHD" xmlns="http://www.w3.org/2000/svg" xmlns:xlink="http://www.w3.org/1999/xlink" x="0px" y="0px"
	 viewBox="0 0 425.2 425.2" style="enable-background:new 0 0 425.2 425.2;" xml:space="preserve">
<style type="text/css">
	.st0{fill:#A2ACB3;}
	.st1{fill:#00ABA3;}
	.st2{fill:#FFFFFF;}
</style>
<g>
	<rect x="76.6" y="77.5" class="st0" width="271" height="271"/>
	<rect x="76.7" y="77.5" transform="matrix(0.9688 -0.2478 0.2478 0.9688 -46.1775 59.235)" class="st1" width="271" height="271"/>
	<rect x="76.6" y="77.5" class="st0" width="271" height="271"/>
	<g>
		<path class="st2" d="M236.2,287.8c-2.9-11.9-5.6-22-10.3-41.5c-3.2-13.1-5.5-22.5-6.9-28.2l-2.3-9.3c6.1-1.4,11.4-2.6,15.9-3.7
			c4.3-1.1,9.9-2.6,16.7-4.6c6.9-2,13.4-3.7,19.5-5.2c7-1.7,13.2-2.9,18.7-3.3c5.5-0.5,10.8,0,16.1,1.5c5.2,1.5,9.9,4,14.1,7.5
			c4.1,3.5,7.7,7.9,10.8,13.2c3,5.3,5.3,11,6.8,17.1c1.5,6,2.3,11.9,2.4,17.7c0.1,5.8-0.4,11.2-1.5,16.2c-1.1,5-2.8,9.5-5,13.4
			c-2.2,3.9-5,7.5-8.3,10.8c-2.5,2.4-5,4.4-7.7,6.1c-2.7,1.7-6.5,3.4-11.4,5.3c-5.5,2-11.8,3.9-19,5.7l-41.4,9.9
			C242.5,312.5,238.7,298.1,236.2,287.8z M268.2,285.5c2.9-0.5,17.4-4.5,21.3-6.5c3.9-2,7.1-4.9,9.5-8.8c2.4-3.9,3.7-8.5,4-13.7
			c0.3-5.3-0.2-10.4-1.5-15.6c-1.6-6.3-4-11.3-7.3-15s-7.1-6-11.2-6.7c-4.2-0.8-9.4-0.3-15.9,1.3c-3.8,0.9-8.2,2.2-13.2,3.8
			L268.2,285.5z"/>
	</g>
	<g>
		<path class="st2" d="M295.4,155.9c0.1,3,0.4,7.2,0.8,12.6c0.4,5.4,0.8,9.5,1.2,12.4c-10.5,4.3-20.1,7.5-28.7,9.7
			c-8.3,2.1-16.2,3-23.9,2.8c-7.6-0.2-15-1.8-22.1-4.9c-7.1-3.1-12.7-7.3-16.8-12.8c-4.1-5.5-7.1-12-9-19.7
			c-2.2-8.9-2.5-17.3-0.8-25.2c1.7-7.9,5.2-15.1,10.5-21.4c5.3-6.3,11.5-11.5,18.7-15.5c7.2-4,14.9-7,23.2-9
			c7.6-1.9,17.1-3.3,28.8-4.2l1.7,6.1c0.8,2.7,1.7,5.6,2.7,8.8l2.6,8.3c-6.3,0.1-11.4,0.4-15.2,0.8c-3.8,0.4-7.3,1-10.5,1.8
			c-6.9,1.7-12.8,4.6-17.6,8.6c-4.9,4-8.2,9-10.2,14.8c-1.9,5.8-2.1,11.8-0.6,18c1.4,5.6,3.9,10.1,7.6,13.4c3.7,3.3,8,5.5,13.1,6.6
			c5.1,1.1,10.9,0.8,17.6-0.9c3.6-0.9,7.5-2.2,11.6-3.8S289.4,159.1,295.4,155.9z"/>
	</g>
	<g>
		<path class="st2" d="M115.4,348.5l-7.6-43.5l-6.4-31.5l-3.1-14c-0.9-4-1.8-7.9-2.7-11.6l-2-7.5c8.2-1.9,14.4-3.4,18.5-4.4
			c3.2-0.8,8.7-2.2,16.6-4.3c2.5,15.3,5,28.7,7.5,40.3l42.6-10.6c-0.8-4.4-2-10.2-3.6-17.6c-1.6-7.4-2.7-12.4-3.4-15
			c-0.4-1.4-1-3.9-2-7.3l18.6-4.5c1.9-0.5,7.4-1.9,16.4-4.3c4.8,27.3,8.6,47.6,11.4,60.8c2.7,13.2,6.4,29,10.9,47.2l-17.1,4.1
			c-2.6,0.6-8.7,2.2-18.3,4.7c-1.8-12.8-4.5-27.4-8.2-44.1L140.8,296l9.5,43.7l-18.2,4.4C129.8,344.7,124.2,346.1,115.4,348.5z"/>
	</g>
	<g>
		<path class="st2" d="M93.5,231.6l2.4-12.6l13.7-84.5l1.4-9.4c0.4-2.8,0.9-6.7,1.5-11.9c7.5-1.7,12.9-3,16.3-3.9
			c5.9-1.5,11.4-2.9,16.5-4.3l17.4,30.4l35.1,57.9l6.8,10.5c-7.3,1.7-12.7,3-14.3,3.4c-3.5,0.9-13.9,3.5-20.7,5.3
			c-3.5-8.4-7.7-18-12.8-29.1l-26.7,6.7c-0.6,10.9-0.9,19.8-1.6,32.7c-7.9,1.9-17.8,4.3-19.6,4.7
			C105.8,228.3,100.6,229.7,93.5,231.6z M129.2,166.1l19.7-4.9c-9.5-17.2-14.7-26.7-15.6-28.4c-0.9,8.4-1.7,15.2-2.4,20.6
			L129.2,166.1z"/>
	</g>
</g>
</svg>
